{
	"optGroupOrder": "Optional options, Required options",
	"cmdGroupOrder": "Group1 commands, Group2 commands",
	"helpOptGroup" : "Optional options",
	"helpCmdGroup" : "Group2 commands",
	"showTypes"    : true,
	"options"      : {
		"a" : {
			"aka"    : "a1",
			"long"   : "abc",
			"desc"   : "Option a",
			"require": true,
			"group"  : "Required options"
		}
	},
	"commands"    : {
		"g1-cmd" : {
			"desc"    : "The command belongs to group1",
			"group"   : "Group1 commands",
			"options" : {
				"b" : {
					"alias"   : "b1",
					"long"    : "bbc",
					"desc"    : "Option b",
					"default" : 10,
					"group"   : "Optional options"
				}
			}
		},
		"g2-cmd" : {
			"desc"    : "The command belongs to group2",
			"group"   : "Group2 commands",
			"options" : {
				"c" : {
					"long"   : "optc",
					"type"   : "bool",
					"default": true,
					"group"  : "Optional options",
					"desc"   : "Option c, a bool option"
				},
				"d" : {
					"long"   : "optd",
					"group"  : "Optional options",
					"type"   : "flag",
					"desc"   : "Whether something is done."
				},
				"e" : {
					"type"     : "array",
					"require"  : true,
					"group"    : "Required options",
					"desc"     : "Option e",
					"callback" : "PHP: function ($opt) { $opt->setValue (implode(\",\", $opt->getValue())); }"
				},
				"" : {
					"type"     : "array",
					"require"  : true,
					"group"    : "Required options",
					"desc"     : "Option f"
				}
			}
		}
	}
}